[2024-09-26 07:19:21 PM] 'xbdm' - stop ('192.168.128.53', 55913) Auth code - '[92mf04ebe656eecb5e7[0m'
[2024-09-26 07:19:22 PM] 'xbdm' - clear ('192.168.128.53', 55913)
[2024-09-26 07:22:35 PM] 'xbdm' - list ('192.168.128.53', 55913)
[2024-09-26 07:22:36 PM] 'xbdm' - help ('192.168.128.53', 55913)
[2024-09-26 07:23:02 PM] 'xbdm' - list ('192.168.128.53', 55962)
[2024-09-26 07:23:23 PM] 'xbdm' - list ('192.168.128.53', 55985)
[2024-09-26 07:23:39 PM] 'xbdm' - list ('192.168.128.53', 55998)
[2024-09-26 07:23:52 PM] 'xbdm' - list ('192.168.128.53', 55998)
[2024-09-26 07:23:54 PM] 'xbdm' - help ('192.168.128.53', 55998)
[2024-09-26 07:24:00 PM] 'nigger' - stop ('192.168.128.53', 56006) Auth code - '[92ma53179613c8c9a58[0m'
[2024-09-26 08:02:49 PM] 'xbdm' - list ('192.168.128.53', 54399)
[2024-09-26 08:03:20 PM] 'xbdm' - list ('192.168.128.53', 54399)
[2024-09-26 08:03:29 PM] 'xbdm' - list ('192.168.128.53', 54399)
[2024-09-26 08:10:39 PM] 'xbdm'- quit ('192.168.128.53', 54557)
[2024-09-26 08:10:54 PM] 'xbdm'- q ('192.168.128.53', 54562)
[2024-09-26 08:10:56 PM] 'xbdm'- quit ('192.168.128.53', 54562)
[2024-09-26 08:12:45 PM] 'xbdm'- quit ('192.168.128.53', 54625)
[2024-09-26 08:13:07 PM] 'xbdm'- stop ('192.168.128.53', 54649)
[2024-09-26 08:13:09 PM] 'xbdm'- stop ('192.168.128.53', 54649)
[2024-09-26 08:19:23 PM] 'xbdm' - stop ('192.168.128.53', 54768) Auth code - '[92mcd6b1952b36d71d0[0m'
[2024-09-26 09:13:11 PM] 'xbdm' - stop ('192.168.128.53', 55381)
[2024-09-26 09:13:16 PM] 'xbdm' - stop ('192.168.128.53', 55381) Auth code - '[92m238dcb7e8aba5b8b[0m'
[2024-09-26 09:13:20 PM] 'xbdm' - stop ('192.168.128.53', 55381)
[2024-09-26 09:15:34 PM] 'xbdm' - UDP 206.212.246.10 65535 65500 0 ('192.168.128.53', 55381) Auth code - '[92m94a086aaf44d46ce[0m'
[2024-09-26 09:15:36 PM] 'xbdm' - stop ('192.168.128.53', 55381) Auth code - '[92m1c88496a7b0437e8[0m'
[2024-09-26 10:55:48 PM] 'xbdm' - stop ('192.168.128.53', 54183) Auth code - '[92m7de25b4c099804c3[0m'
[2024-09-26 10:55:52 PM] 'xbdm' - stop ('192.168.128.53', 54183) Auth code - '[92m665304405531ad13[0m'
[2024-09-26 10:55:54 PM] 'xbdm' - stop ('192.168.128.53', 54183) Auth code - '[92m9a18bf0029400cca[0m'
[2024-09-26 10:55:56 PM] 'xbdm' - clear ('192.168.128.53', 54183)
[2024-09-26 10:56:00 PM] 'xbdm' - clear ('192.168.128.53', 54183)
[2024-09-26 10:57:27 PM] 'xbdm' - UDP 130.162.187.84 65535 65500 0 ('192.168.128.53', 54183) Auth code - '[92m416f288296196581[0m'
[2024-09-26 10:57:34 PM] 'xbdm' - stop ('192.168.128.53', 54183) Auth code - '[92me64595944c0792ea[0m'
[2024-09-26 10:57:47 PM] 'xbdm' - TCP 130.162.187.84 80 500 25 0 ('192.168.128.53', 54183) Auth code - '[92mafacde9a00eb7e6a[0m'
[2024-09-26 10:57:52 PM] 'xbdm' - stop ('192.168.128.53', 54183) Auth code - '[92m9706573008af4d97[0m'
[2024-09-26 10:59:06 PM] 'xbdm' - UDP 23.143.152.86 65535 65500 0 ('192.168.128.53', 54183) Auth code - '[92m9533a63e2fdcfae1[0m'
[2024-09-26 10:59:24 PM] 'xbdm' - stop ('192.168.128.53', 54183) Auth code - '[92md207cab144f4ede5[0m'
[2024-09-26 10:59:48 PM] 'xbdm' - TCP 23.143.152.86 80 500 25 0 ('192.168.128.53', 54183) Auth code - '[92m5fb24ae99469b0c4[0m'
[2024-09-26 11:00:01 PM] 'xbdm' - stop ('192.168.128.53', 54183) Auth code - '[92mb00917101783a601[0m'
[2024-09-27 10:13:24 PM] 'xbdm' - stop ('192.168.128.53', 65279) Auth code - '[92m7d19644f93c88b84[0m'
[2024-09-29 04:37:57 PM] 'xbdm' - stop ('192.168.128.53', 60097) Auth code - '[92mcc9e2bcc4d2bfd46[0m'
[2024-09-29 04:37:58 PM] 'xbdm' - stop ('192.168.128.53', 60097) Auth code - '[92mf71ad7af3e8692b2[0m'
[2024-09-29 04:38:00 PM] 'xbdm' - stop ('192.168.128.53', 60097) Auth code - '[92md71ff8cec60f48ac[0m'
[2024-09-29 04:38:03 PM] 'xbdm' - stop ('192.168.128.53', 60097) Auth code - '[92m0025ceec85efb3ca[0m'
[2024-09-29 04:43:38 PM] 'xbdm'- stop ('192.168.128.53', 60195)
[2024-09-29 04:45:33 PM] 'xbdm'- quit ('192.168.128.53', 60244)
[2024-09-29 04:52:23 PM] 'xbdm'- quit ('192.168.128.53', 60344)
[2024-09-29 04:53:18 PM] 'xbdm'- quit ('192.168.128.53', 60354)
[2024-09-29 04:53:36 PM] 'xbdm'- quit ('192.168.128.53', 60359)
[2024-09-29 04:53:50 PM] 'xbdm'- quit ('192.168.128.53', 60363)
[2024-09-29 04:53:58 PM] 'xbdm'- quit ('192.168.128.53', 60366)
[2024-09-29 05:12:13 PM] 'xbdm'- stop ('192.168.128.53', 60488)
[2024-09-29 05:12:14 PM] 'xbdm'- stop ('192.168.128.53', 60488)
[2024-09-29 05:12:15 PM] 'xbdm'- stop ('192.168.128.53', 60488)
[2024-09-29 05:12:16 PM] 'xbdm'- stop ('192.168.128.53', 60488)
[2024-09-29 05:12:17 PM] 'xbdm'- stop ('192.168.128.53', 60488)
[2024-09-29 05:12:17 PM] 'xbdm'- stop ('192.168.128.53', 60488)
[2024-09-29 05:12:19 PM] 'xbdm'- clear ('192.168.128.53', 60488)
[2024-09-29 05:24:30 PM] 'xbdm'- stop ('192.168.128.53', 59062) Auth code - "119266cb4cdaf884cf9d23aae0d0944132995f1f77ed3e94add6b8234ec25d0b"
[2024-09-29 05:24:33 PM] 'xbdm'- stop ('192.168.128.53', 59062) Auth code - "234cdb33ee737d89f9412b90824513c08b8a6f2764a8a7ab11822273296cebeb"
[2024-09-29 05:24:34 PM] 'xbdm'- clear ('192.168.128.53', 59062)
[2024-09-29 05:24:45 PM] 'xbdm'- stop ('192.168.128.53', 59062) Auth code - "554ce8a4f64e0a1551b0673f8f1180e3fcfee934832a0dd1ab450dae3dd93316"
[2024-09-29 05:24:46 PM] 'xbdm'- clear ('192.168.128.53', 59062)
[2024-09-29 05:24:53 PM] 'xbdm'- stop ('192.168.128.53', 59062) Auth code - "043ee48ec20ba4cb7fd2ed7d34d3b2f5d09c18e7c8de28082e5e3fd04fe2a571"
[2024-09-29 05:25:16 PM] 'xbdm'- stop ('192.168.128.53', 59068) Auth code - "524d6043888e3068e057e027927818a33eb784185c6a442889c7d9615b59d7cc"
[2024-09-29 05:25:18 PM] 'xbdm'- clear ('192.168.128.53', 59068)
[2024-09-29 05:25:19 PM] 'xbdm'- stop ('192.168.128.53', 59068) Auth code - "831dbf2d2056e3043caa5a882c6acc5cd6ec3fc928f7fd8547553c8b0aab3f5e"
[2024-09-29 05:25:20 PM] 'xbdm'- stop ('192.168.128.53', 59068) Auth code - "5f91a4148cf826c93135cac0ed56e92e5a2274980383ec33cfb9e698ad5ed622"
[2024-09-29 05:25:21 PM] 'xbdm'- stop ('192.168.128.53', 59068) Auth code - "e52cb913e56403ec94beb4d5ebb93bb19e21d3be19ac4a9ffccf41a17acfbd65"
[2024-09-29 05:46:47 PM] 'xbdm'- quit ('192.168.128.53', 59949)
[2024-09-29 05:50:22 PM] 'xbdm'- stop ('192.168.128.53', 59986)
[2024-09-29 09:20:14 PM] 'xbdm'- stop ('192.168.128.53', 51813)
[2024-09-29 09:36:22 PM] 'xbdm'- stop ('192.168.128.53', 49597)
[2024-09-29 09:36:24 PM] 'xbdm'- stop ('192.168.128.53', 49597)
[2024-09-29 09:36:25 PM] 'xbdm'- stop ('192.168.128.53', 49597)
[2024-09-29 09:36:26 PM] 'xbdm'- stop ('192.168.128.53', 49597)
[2024-09-29 09:36:27 PM] 'xbdm'- clear ('192.168.128.53', 49597)
[2024-09-29 09:36:29 PM] 'xbdm'- stop ('192.168.128.53', 49597)
[2024-09-29 09:36:30 PM] 'xbdm'- stop ('192.168.128.53', 49597)
[2024-09-29 09:36:31 PM] 'xbdm'- stop ('192.168.128.53', 49597)
[2024-09-29 09:36:32 PM] 'xbdm'- clear ('192.168.128.53', 49597)
[2024-09-29 09:36:33 PM] 'xbdm'- stop ('192.168.128.53', 49597)
[2024-09-29 09:36:35 PM] 'xbdm'- stop ('192.168.128.53', 49597)
[2024-09-29 09:36:55 PM] 'xbdm'- stop ('192.168.128.53', 49597)
[2024-09-29 09:36:56 PM] 'xbdm'- clear ('192.168.128.53', 49597)
[2024-09-29 09:36:57 PM] 'xbdm'- stop ('192.168.128.53', 49597)
[2024-09-29 09:36:58 PM] 'xbdm'- clear ('192.168.128.53', 49597)
[2024-09-29 09:36:59 PM] 'xbdm'- help ('192.168.128.53', 49597)
[2024-09-29 09:37:01 PM] 'xbdm'- clear ('192.168.128.53', 49597)
[2024-09-29 09:37:03 PM] 'xbdm'- stop ('192.168.128.53', 49597)
[2024-09-29 09:37:04 PM] 'xbdm'- stop ('192.168.128.53', 49597)
[2024-09-29 09:37:05 PM] 'xbdm'- stop ('192.168.128.53', 49597)
[2024-09-29 09:37:06 PM] 'xbdm'- stop ('192.168.128.53', 49597)
[2024-09-29 09:37:07 PM] 'xbdm'- stop ('192.168.128.53', 49597)
[2024-09-29 09:37:08 PM] 'xbdm'- stop ('192.168.128.53', 49597)
[2024-09-29 09:37:09 PM] 'xbdm'- stop ('192.168.128.53', 49597)
[2024-09-29 09:37:09 PM] 'xbdm'- stop ('192.168.128.53', 49597)
[2024-09-29 09:37:10 PM] 'xbdm'- stop ('192.168.128.53', 49597)
[2024-09-29 09:37:10 PM] 'xbdm'- stop ('192.168.128.53', 49597)
[2024-09-29 09:38:04 PM] 'xbdm'- stop ('192.168.128.53', 49597)
[2024-09-29 09:38:05 PM] 'xbdm'- clear ('192.168.128.53', 49597)
[2024-09-29 10:16:31 PM] 'xbdm'- stop ('192.168.128.53', 55861)
[2024-09-29 10:16:32 PM] 'xbdm'- stop ('192.168.128.53', 55861)
[2024-09-29 10:16:34 PM] 'xbdm'- stop ('192.168.128.53', 55861)
[2024-09-29 10:16:35 PM] 'xbdm'- stop ('192.168.128.53', 55861)
[2024-09-29 10:38:05 PM] 'xbdm'- stop ('192.168.128.53', 64219)
[2024-09-29 10:38:07 PM] 'xbdm'- stop ('192.168.128.53', 64219)
[2024-09-29 10:38:08 PM] 'xbdm'- stop ('192.168.128.53', 64219)
[2024-09-29 10:38:09 PM] 'xbdm'- stop ('192.168.128.53', 64219)
[2024-09-29 10:38:09 PM] 'xbdm'- stop ('192.168.128.53', 64219)
[2024-09-29 10:52:37 PM] 'xbdm'- stop ('192.168.128.53', 64711) Auth code - "040a4c75322804ec"
[2024-09-29 10:52:39 PM] 'xbdm'- stop ('192.168.128.53', 64711) Auth code - "95d608fd199c606c"
[2024-09-29 10:52:40 PM] 'xbdm'- clear ('192.168.128.53', 64711)
[2024-09-29 10:52:42 PM] 'xbdm'- help ('192.168.128.53', 64711)
[2024-09-29 10:52:43 PM] 'xbdm'- stop ('192.168.128.53', 64711) Auth code - "7975472a396c29a0"
[2024-09-29 11:18:19 PM] 'xbdm'- stop ('192.168.128.53', 64711) Auth code - "e58dd4dd44765c79"
[2024-09-29 11:18:20 PM] 'xbdm'- clear ('192.168.128.53', 64711)
[2024-09-29 11:18:22 PM] 'xbdm'- stop ('192.168.128.53', 64711) Auth code - "94776e7422e36267"
[2024-09-29 11:18:23 PM] 'xbdm'- stop ('192.168.128.53', 64711) Auth code - "50e32dd815b7212c"
[2024-09-29 11:18:46 PM] 'xbdm'- clear ('192.168.128.53', 64711)
[2024-09-29 11:18:47 PM] 'xbdm'- stop ('192.168.128.53', 64711) Auth code - "27d76d3fbe989f8d"
[2024-09-30 12:36:09 AM] 'feet'- stop ('192.168.128.53', 60909)
[2024-09-30 12:36:12 AM] 'feet'- stop ('192.168.128.53', 60909)
[2024-09-30 12:36:16 AM] 'feet'- stop ('192.168.128.53', 60902)
[2024-09-30 12:36:21 AM] 'feet'- stop ('192.168.128.53', 60909)
[2024-09-30 12:36:26 AM] 'hot_balls'- stop ('192.168.128.53', 60866)
[2024-09-30 12:38:33 AM] 'nigger'- stop ('192.168.128.53', 60956) Auth code - "95ef4b3259bde8ae"
[2024-09-30 12:38:35 AM] 'xbdm'- stop ('192.168.128.53', 60947) Auth code - "6e4fd2c170f305a9"
[2024-09-30 12:38:38 AM] 'hot_balls'- stop ('192.168.128.53', 60953) Auth code - "34e573ce2c81307a"
[2024-09-30 09:53:35 PM] 'xbdm'- stop ('192.168.128.53', 59137) Auth code - "a11f2dad73a86bf0"
[2024-09-30 09:53:36 PM] 'xbdm'- stop ('192.168.128.53', 59137) Auth code - "f82e392f9fccabc7"
[2024-09-30 09:53:37 PM] 'xbdm'- stop ('192.168.128.53', 59137) Auth code - "2068b4cfd30c0530"
[2024-09-30 09:53:38 PM] 'xbdm'- clear ('192.168.128.53', 59137)
[2024-09-30 09:53:40 PM] 'xbdm'- stop ('192.168.128.53', 59137) Auth code - "4724c4dd241d413c"
[2024-09-30 10:01:44 PM] 'xbdm'- stop ('192.168.128.53', 59137) Auth code - "4d8da117658f956d"
[2024-09-30 10:01:46 PM] 'xbdm'- clear ('192.168.128.53', 59137)
[2024-09-30 10:01:47 PM] 'xbdm'- clear ('192.168.128.53', 59137)
[2024-10-03 08:48:38 PM] 'gay'- stop ('192.168.128.53', 52780) Auth code - "1fadf631534ca066"
[2024-10-03 08:48:49 PM] 'gay'- stop ('192.168.128.53', 52782)
[2024-10-05 07:34:34 PM] 'xbdm'- stop ('192.168.128.53', 62773) Auth code - "835957f2eca9ca96"
[2024-10-05 07:35:09 PM] 'xbdm'- stop ('192.168.128.53', 62773) Auth code - "d427e1a83f931434"
[2024-10-05 10:31:03 PM] 'xbdm'- stop ('192.168.128.53', 64814) Auth code - "2bcdad50aa4c5d9d"
[2024-10-05 10:31:05 PM] 'xbdm'- stop ('192.168.128.53', 64814) Auth code - "97af3714c82b4e53"
[2024-10-05 10:31:06 PM] 'xbdm'- stop ('192.168.128.53', 64814) Auth code - "637530ff768eb852"
[2024-10-05 10:50:58 PM] 'xbdm'- stop ('192.168.128.53', 58079) Auth code - "85a8c7594d0495ea"
[2024-10-05 10:50:59 PM] 'xbdm'- clear ('192.168.128.53', 58079)
[2024-10-05 10:51:01 PM] 'xbdm'- stop ('192.168.128.53', 58079) Auth code - "4070b0422bee995a"
[2024-10-05 10:51:26 PM] 'xbdm'- stop ('192.168.128.53', 58079) Auth code - "95856cc567dab1b5"
[2024-10-05 10:51:32 PM] 'xbdm'- stop ('192.168.128.53', 58079) Auth code - "e153aee7b6cd97f3"
[2024-10-05 10:51:34 PM] 'xbdm'- stop ('192.168.128.53', 58079) Auth code - "654bad1b3c1d8db5"
[2024-10-05 10:51:35 PM] 'xbdm'- clear ('192.168.128.53', 58079)
[2024-10-05 10:51:37 PM] 'xbdm'- stop ('192.168.128.53', 58079) Auth code - "26dea7eebc495a43"
[2024-10-05 10:52:32 PM] 'xbdm'- stop ('192.168.128.53', 58079) Auth code - "baff4d3001caceca"
[2024-10-05 10:52:34 PM] 'xbdm'- stop ('192.168.128.53', 58079) Auth code - "754fc54753bb27b8"
[2024-10-05 10:52:36 PM] 'xbdm'- clear ('192.168.128.53', 58079)
[2024-10-05 10:53:49 PM] 'xbdm'- stop ('192.168.128.53', 58111)
[2024-10-05 10:54:07 PM] 'xbdm'- stop ('192.168.128.53', 58111)
[2024-10-05 10:54:08 PM] 'xbdm'- clear ('192.168.128.53', 58111)
[2024-10-05 10:54:09 PM] 'xbdm'- stop ('192.168.128.53', 58111)
[2024-10-05 11:00:52 PM] 'xbdm'- help ('192.168.128.53', 58111)
[2024-10-05 11:00:59 PM] 'xbdm'- HTTP https://nodec.mediathektv.com 500 50 0 POST ('192.168.128.53', 58111)
[2024-10-05 11:01:19 PM] 'xbdm'- stop ('192.168.128.53', 58111)
[2024-10-05 11:01:50 PM] 'xbdm'- UDP 23.227.146.106 65535 65500 0 ('192.168.128.53', 58111)
[2024-10-05 11:02:02 PM] 'xbdm'- stop ('192.168.128.53', 58111)
[2024-10-05 11:02:46 PM] 'xbdm'- TCP 23.227.146.106 80 500 25 0 ('192.168.128.53', 58111)
[2024-10-05 11:03:01 PM] 'xbdm'- stop ('192.168.128.53', 58111)
[2024-10-05 11:03:53 PM] 'xbdm'- TCP 84.17.40.11 80 500 25 0 ('192.168.128.53', 58111)
[2024-10-05 11:04:20 PM] 'xbdm'- stop ('192.168.128.53', 58111)
[2024-10-05 11:04:30 PM] 'xbdm'- UDP 84.17.40.11 65535 65500 0 ('192.168.128.53', 58111)
[2024-10-05 11:04:44 PM] 'xbdm'- stop ('192.168.128.53', 58111)
[2024-10-05 11:05:49 PM] 'xbdm'- UDP 45.134.212.104 65535 65500 0 ('192.168.128.53', 54526)
[2024-10-05 11:06:05 PM] 'xbdm'- UDP 45.134.212.104 65535 65500 0 ('192.168.128.53', 54610) Auth code - "80165cb176a28070"
[2024-10-05 11:06:25 PM] 'xbdm'- stop ('192.168.128.53', 54610) Auth code - "88eb9be9d7e06554"
[2024-10-05 11:07:08 PM] 'xbdm'- stop ('192.168.128.53', 54610) Auth code - "57ff44aa07d5ed90"
[2024-10-05 11:07:11 PM] 'xbdm'- clear ('192.168.128.53', 54610)
[2024-10-05 11:07:17 PM] 'xbdm'- clear ('192.168.128.53', 54610)
[2024-10-05 11:07:29 PM] 'xbdm'- stop ('192.168.128.53', 54610) Auth code - "54633c88900710e9"
[2024-10-05 11:07:30 PM] 'xbdm'- clear ('192.168.128.53', 54610)
[2024-10-05 11:07:37 PM] 'xbdm'- UDP 45.134.212.104 65535 65500 0 ('192.168.128.53', 54610) Auth code - "1513b93fb30ad796"
[2024-10-05 11:07:52 PM] 'xbdm'- stop ('192.168.128.53', 54610) Auth code - "587c59af6fefe1d9"
[2024-10-05 11:08:04 PM] 'xbdm'- TCP 45.134.212.104 80 500 25 0 ('192.168.128.53', 54610) Auth code - "d38d7a3d10961514"
[2024-10-05 11:08:12 PM] 'xbdm'- stop ('192.168.128.53', 54610) Auth code - "60e3b9a152a5e35f"
[2024-10-05 11:08:21 PM] 'xbdm'- UDP 45.134.212.104 65535 65500 0 ('192.168.128.53', 54610) Auth code - "5f9ba31592ca80c2"
[2024-10-05 11:08:25 PM] 'xbdm'- stop ('192.168.128.53', 54610) Auth code - "f4a732045656349c"
[2024-10-05 11:08:26 PM] 'xbdm'- UDP 45.134.212.104 65535 65500 0 ('192.168.128.53', 54610) Auth code - "cf741a1e4c0412f8"
[2024-10-05 11:08:29 PM] 'xbdm'- stop ('192.168.128.53', 54610) Auth code - "9eea1ce4718a3597"
[2024-10-05 11:08:30 PM] 'xbdm'- UDP 45.134.212.104 65535 65500 0 ('192.168.128.53', 54610) Auth code - "b468dee38d104159"
[2024-10-05 11:08:32 PM] 'xbdm'- stop ('192.168.128.53', 54610) Auth code - "fd3ccd4e0c9411a7"
[2024-10-05 11:08:33 PM] 'xbdm'- UDP 45.134.212.104 65535 65500 0 ('192.168.128.53', 54610) Auth code - "5e72585dcbab78ec"
[2024-10-05 11:08:36 PM] 'xbdm'- stop ('192.168.128.53', 54610) Auth code - "81e256f95a9913d9"
[2024-10-05 11:08:37 PM] 'xbdm'- clear ('192.168.128.53', 54610)
[2024-10-05 11:09:10 PM] 'xbdm'- UDP 84.17.40.11 65535 65500 0 ('192.168.128.53', 54610) Auth code - "7f6606629fbf9eb2"
[2024-10-05 11:09:25 PM] 'xbdm'- stop ('192.168.128.53', 54610) Auth code - "c8954ffe4b929911"
[2024-10-05 11:09:38 PM] 'xbdm'- TCP 84.17.40.11 80 500 25 0 ('192.168.128.53', 54610) Auth code - "836f03c47fc4692f"
[2024-10-05 11:10:04 PM] 'xbdm'- stop ('192.168.128.53', 54610) Auth code - "66b58451b6890d96"
[2024-10-05 11:10:05 PM] 'xbdm'- clear ('192.168.128.53', 54610)
[2024-10-05 11:14:21 PM] 'xbdm'- UDP 23.143.152.86 65535 65500 0 ('192.168.128.53', 54610) Auth code - "948f2e4f1fbfe68f"
[2024-10-05 11:14:46 PM] 'xbdm'- stop ('192.168.128.53', 54610) Auth code - "b00d4f0d4d20ccc8"
[2024-10-05 11:14:59 PM] 'xbdm'- TCP 23.143.152.86 80 500 25 0 ('192.168.128.53', 54610) Auth code - "8ffed0aead69f825"
[2024-10-05 11:15:18 PM] 'xbdm'- stop ('192.168.128.53', 54610) Auth code - "0b267d8d1b1239d0"
[2024-10-05 11:15:54 PM] 'xbdm'- UDP 38.51.157.254 65535 65500 0 ('192.168.128.53', 54610) Auth code - "16c5ac36fcd98c4c"
[2024-10-05 11:16:16 PM] 'xbdm'- stop ('192.168.128.53', 54610) Auth code - "0ec33abf89ec716e"
[2024-10-05 11:16:30 PM] 'xbdm'- TCP 38.51.157.254 80 500 25 0 ('192.168.128.53', 54610) Auth code - "b1eb6ffa130f596c"
[2024-10-05 11:16:50 PM] 'xbdm'- stop ('192.168.128.53', 54610) Auth code - "12dc57bf21ae7080"
[2024-10-05 11:17:23 PM] 'xbdm'- UDP 183.81.168.152 65535 65500 0 ('192.168.128.53', 54610) Auth code - "dae46e0db49910b8"
[2024-10-05 11:17:40 PM] 'xbdm'- stop ('192.168.128.53', 54610) Auth code - "ca2faa5a0845d729"
[2024-10-05 11:17:41 PM] 'xbdm'- clear ('192.168.128.53', 54610)
[2024-10-05 11:17:50 PM] 'xbdm'- TCP 183.81.168.152 80 500 25 0 ('192.168.128.53', 54610) Auth code - "ec02362a31498e24"
[2024-10-05 11:18:19 PM] 'xbdm'- stop ('192.168.128.53', 54610) Auth code - "6a6bc78b48262d52"
[2024-10-05 11:18:36 PM] 'xbdm'- UDP 89.187.179.199 65535 65500 0 ('192.168.128.53', 54610) Auth code - "70434c800e67af7a"
[2024-10-05 11:19:02 PM] 'xbdm'- stop ('192.168.128.53', 54610) Auth code - "d146d06248651f9f"
[2024-10-05 11:19:19 PM] 'xbdm'- TCP 89.187.179.199 80 500 25 0 ('192.168.128.53', 54610) Auth code - "0f20f56934c3285a"
[2024-10-05 11:19:46 PM] 'xbdm'- stop ('192.168.128.53', 54610) Auth code - "ae2bd2770dce6e8e"
[2024-10-05 11:23:48 PM] 'xbdm'- stop ('192.168.128.53', 54610) Auth code - "7ed9ee57720149bb"
[2024-10-05 11:23:49 PM] 'xbdm'- clear ('192.168.128.53', 54610)
[2024-10-05 11:24:16 PM] 'xbdm'- TCP 89.187.179.199 80 500 25 0 ('192.168.128.53', 54610) Auth code - "3cf9c7ab33c1b038"
[2024-10-05 11:29:08 PM] 'xbdm'- list ('192.168.128.53', 55936)
[2024-10-05 11:29:21 PM] 'xbdm'- list ('192.168.128.53', 55936)
[2024-10-05 11:29:28 PM] 'xbdm'- list ('192.168.128.53', 55936)
[2024-10-05 11:29:33 PM] 'xbdm'- list ('192.168.128.53', 55936)
[2024-10-05 11:29:59 PM] 'xbdm'- UDP 208.99.62.84 65535 65500 0 ('192.168.128.53', 55936) Auth code - "2e756a876c0cd29d"
[2024-10-05 11:30:29 PM] 'xbdm'- stop ('192.168.128.53', 55936) Auth code - "6bdcb601c498ae21"
[2024-10-05 11:30:30 PM] 'xbdm'- clear ('192.168.128.53', 55936)
[2024-10-05 11:31:34 PM] 'xbdm'- UDP 210.177.57.253 65535 65500 0 ('192.168.128.53', 55936) Auth code - "8a9a695d3d36e43d"
[2024-10-05 11:31:38 PM] 'xbdm'- stop ('192.168.128.53', 55936) Auth code - "ac888f87bdd727c5"
[2024-10-05 11:31:48 PM] 'xbdm'- TCP 210.177.57.253 80 500 25 0 ('192.168.128.53', 55936) Auth code - "206bf8eedb7462fb"
[2024-10-05 11:31:52 PM] 'xbdm'- stop ('192.168.128.53', 55936) Auth code - "f401a6cf98948af2"
[2024-10-05 11:32:05 PM] 'xbdm'- TCP 210.177.57.253 80 500 25 0 ('192.168.128.53', 55936) Auth code - "58ecd794a5ce736a"
[2024-10-05 11:32:17 PM] 'xbdm'- stop ('192.168.128.53', 55936) Auth code - "b0cbc3939e9488ec"
[2024-10-05 11:32:19 PM] 'xbdm'- TCP 210.177.57.253 80 500 25 0 ('192.168.128.53', 55936) Auth code - "6d691370c30c02c9"
[2024-10-05 11:32:24 PM] 'xbdm'- stop ('192.168.128.53', 55936) Auth code - "8b3feadb3f66516d"
[2024-10-05 11:32:25 PM] 'xbdm'- TCP 210.177.57.253 80 500 25 0 ('192.168.128.53', 55936) Auth code - "c473f60513491c57"
[2024-10-05 11:32:26 PM] 'xbdm'- stop ('192.168.128.53', 55936) Auth code - "eb44222e7faf64cb"
[2024-10-05 11:32:28 PM] 'xbdm'- TCP 210.177.57.253 80 500 25 0 ('192.168.128.53', 55936) Auth code - "42f199448c2caf9f"
[2024-10-05 11:32:29 PM] 'xbdm'- stop ('192.168.128.53', 55936) Auth code - "2fe0571c5e565fe3"
[2024-10-05 11:32:30 PM] 'xbdm'- TCP 210.177.57.253 80 500 25 0 ('192.168.128.53', 55936) Auth code - "36eda9c29d0a233d"
[2024-10-05 11:32:32 PM] 'xbdm'- stop ('192.168.128.53', 55936) Auth code - "8d8e481998ed12ca"
[2024-10-05 11:32:33 PM] 'xbdm'- TCP 210.177.57.253 80 500 25 0 ('192.168.128.53', 55936) Auth code - "4dc62b61ee16f33a"
[2024-10-05 11:32:46 PM] 'xbdm'- stop ('192.168.128.53', 55936) Auth code - "7f005f6828037a90"
[2024-10-05 11:33:09 PM] 'xbdm'- TCP 210.177.57.253 80 500 25 0 ('192.168.128.53', 55936) Auth code - "a65c54a0351cc764"
[2024-10-05 11:33:18 PM] 'xbdm'- stop ('192.168.128.53', 55936) Auth code - "344fad32df3d4e7e"
[2024-10-05 11:33:36 PM] 'xbdm'- TCP 210.177.57.253 80 500 25 0 ('192.168.128.53', 55936) Auth code - "0ab7514f1d86654f"
[2024-10-05 11:33:53 PM] 'xbdm'- stop ('192.168.128.53', 55936) Auth code - "52684f912651c84b"
[2024-10-05 11:33:55 PM] 'xbdm'- TCP 210.177.57.253 80 500 25 0 ('192.168.128.53', 55936) Auth code - "b01bf73fd3dc06e6"
[2024-10-05 11:33:57 PM] 'xbdm'- stop ('192.168.128.53', 55936) Auth code - "52c06cb9f445f22e"
[2024-10-05 11:33:58 PM] 'xbdm'- TCP 210.177.57.253 80 500 25 0 ('192.168.128.53', 55936) Auth code - "cf3cb17ab67cf27b"
[2024-10-05 11:34:00 PM] 'xbdm'- stop ('192.168.128.53', 55936) Auth code - "8e98a0700978251c"
[2024-10-05 11:34:01 PM] 'xbdm'- TCP 210.177.57.253 80 500 25 0 ('192.168.128.53', 55936) Auth code - "519d9c6422039191"
[2024-10-05 11:34:02 PM] 'xbdm'- stop ('192.168.128.53', 55936) Auth code - "4e2b6a951a9850d7"
[2024-10-05 11:38:21 PM] 'xbdm'- stop ('192.168.128.53', 58883) Auth code - "2b1f1904eaf250e8"
[2024-10-05 11:38:23 PM] 'xbdm'- clear ('192.168.128.53', 58883)
[2024-10-05 11:38:36 PM] 'xbdm'- TCP 42.98.47.143 80 500 25 0 ('192.168.128.53', 58883) Auth code - "c73ffec29e4c8c46"
[2024-10-05 11:38:49 PM] 'xbdm'- stop ('192.168.128.53', 58883) Auth code - "a24c69d43e587476"
[2024-10-05 11:39:03 PM] 'xbdm'- TCP 42.98.47.143 8443 500 25 0 ('192.168.128.53', 58883) Auth code - "1a699b274b245137"
[2024-10-05 11:39:17 PM] 'xbdm'- stop ('192.168.128.53', 58883) Auth code - "9ddae27eadf19596"
[2024-10-05 11:39:29 PM] 'xbdm'- UDP 42.98.47.143 65535 65500 0 ('192.168.128.53', 58883) Auth code - "512bab55233989fc"
[2024-10-05 11:39:47 PM] 'xbdm'- stop ('192.168.128.53', 58883) Auth code - "b0a6868bedcb14ec"
[2024-10-05 11:40:29 PM] 'xbdm'- HTTP http://52.74.11.1/ 500 50 0 POST ('192.168.128.53', 58883) Auth code - "f6c8b960c616c5c6"
[2024-10-05 11:40:44 PM] 'xbdm'- stop ('192.168.128.53', 58883) Auth code - "07c507a84e0a2ef6"
[2024-10-05 11:40:56 PM] 'xbdm'- HTTP http://52.74.11.1/ 500 50 0 POST ('192.168.128.53', 58883) Auth code - "a6f9a1c5cd54ded3"
[2024-10-05 11:41:07 PM] 'xbdm'- stop ('192.168.128.53', 58883) Auth code - "ba233193e2ef09af"
[2024-10-05 11:41:30 PM] 'xbdm'- UDP 52.74.11.1 65535 65500 0 ('192.168.128.53', 58883) Auth code - "71b87f61f5a0d304"
[2024-10-05 11:41:56 PM] 'xbdm'- stop ('192.168.128.53', 58883) Auth code - "c2fb959fd0e902b5"
[2024-10-05 11:42:08 PM] 'xbdm'- TCP 52.74.11.1 80 500 25 0 ('192.168.128.53', 58883) Auth code - "33af062635bd51fb"
[2024-10-05 11:42:34 PM] 'xbdm'- stop ('192.168.128.53', 58883) Auth code - "efb6f77bb50f88d4"
[2024-10-05 11:42:35 PM] 'xbdm'- clear ('192.168.128.53', 58883)
[2024-10-05 11:43:37 PM] 'xbdm'- UDP 104.21.234.102 65535 65500 0 ('192.168.128.53', 58883) Auth code - "391cea75c3622c5b"
[2024-10-05 11:43:39 PM] 'xbdm'- stop ('192.168.128.53', 58883) Auth code - "ff857451563226cb"
[2024-10-05 11:43:49 PM] 'xbdm'- TCP 104.21.234.102 80 500 25 0 ('192.168.128.53', 58883) Auth code - "7acb179c573bfe6a"
[2024-10-05 11:43:52 PM] 'xbdm'- stop ('192.168.128.53', 58883) Auth code - "d26de258e0c8e152"
[2024-10-05 11:44:17 PM] 'xbdm'- HTTP https://gelbooru.com/ 500 50 0 POST ('192.168.128.53', 58883) Auth code - "d9aa800d39ea1148"
[2024-10-05 11:44:35 PM] 'xbdm'- stop ('192.168.128.53', 58883) Auth code - "4f1fb4b7118b2170"
[2024-10-05 11:52:12 PM] 'xbdm'- UDP 129.151.120.215 65535 65500 0 ('192.168.128.53', 58883) Auth code - "39211a0eeddaa096"
[2024-10-05 11:52:42 PM] 'xbdm'- stop ('192.168.128.53', 58883) Auth code - "49d0812aeb6918df"
[2024-10-05 11:53:34 PM] 'xbdm'- UDP 66.181.45.173 65535 65500 0 ('192.168.128.53', 58883) Auth code - "91e306dec6e08d1b"
[2024-10-05 11:54:15 PM] 'xbdm'- stop ('192.168.128.53', 58883) Auth code - "d612f8dd8b688572"
[2024-10-05 11:54:49 PM] 'xbdm'- UDP 185.184.223.6 65535 65500 0 ('192.168.128.53', 58883) Auth code - "6e8c945d808516b1"
[2024-10-05 11:55:06 PM] 'xbdm'- stop ('192.168.128.53', 58883) Auth code - "c67076fcd5b13480"
[2024-10-05 11:58:22 PM] 'xbdm'- UDP 108.181.143.72 65535 65500 0 ('192.168.128.53', 58883) Auth code - "cf2e372a4e2db05f"
[2024-10-05 11:58:34 PM] 'xbdm'- stop ('192.168.128.53', 58883) Auth code - "0d70ff0c7cf8964a"
[2024-10-05 11:59:52 PM] 'xbdm'- UDP 144.172.70.164 65535 65500 0 ('192.168.128.53', 58883) Auth code - "c3ec6c20cb510511"
[2024-10-06 12:00:32 AM] 'xbdm'- stop ('192.168.128.53', 58883) Auth code - "8bce77a847b9f76c"
[2024-10-06 12:00:44 AM] 'xbdm'- TCP 144.172.70.164 80 500 25 0 ('192.168.128.53', 58883) Auth code - "ff76654d4c6cdab1"
[2024-10-06 12:01:16 AM] 'xbdm'- stop ('192.168.128.53', 58883) Auth code - "d9e4037709c552e8"
[2024-10-06 12:03:08 AM] 'xbdm'- UDP 172.107.228.194 65535 65500 0 ('192.168.128.53', 58883) Auth code - "727b981a26ba147b"
[2024-10-06 12:03:27 AM] 'xbdm'- stop ('192.168.128.53', 58883) Auth code - "578762f3e699d2c1"
[2024-10-06 12:03:59 AM] 'xbdm'- UDP 108.181.143.72 65535 65500 0 ('192.168.128.53', 58883) Auth code - "05dc100361e867d2"
[2024-10-06 12:04:38 AM] 'xbdm'- stop ('192.168.128.53', 58883) Auth code - "dd36888c54e370d5"
[2024-10-06 12:04:52 AM] 'xbdm'- HTTP https://104.21.234.103/ 500 50 0 POST ('192.168.128.53', 58883) Auth code - "503d416476e80b15"
[2024-10-06 12:05:04 AM] 'xbdm'- stop ('192.168.128.53', 58883) Auth code - "6fba1bd4a6ec552d"
[2024-10-06 12:05:05 AM] 'xbdm'- clear ('192.168.128.53', 58883)
[2024-10-06 06:26:24 PM] 'xbdm'- UDP 35.215.181.46 9339 65500 0 ('192.168.128.53', 61123) Auth code - "d289be97d07ca517"
[2024-10-06 06:26:56 PM] 'xbdm'- stop ('192.168.128.53', 61123) Auth code - "1b2351d19d2cbb97"
[2024-10-06 06:26:58 PM] 'xbdm'- UDP 35.215.181.46 9339 65500 0 ('192.168.128.53', 61123) Auth code - "c9a54e1a50f57901"
[2024-10-06 06:27:19 PM] 'xbdm'- stop ('192.168.128.53', 61123) Auth code - "3d461989ab731313"
[2024-10-06 06:28:41 PM] 'xbdm'- TCP 35.213.166.82 80 500 25 0 ('192.168.128.53', 61123) Auth code - "2513d21ba353b29f"
[2024-10-06 06:28:43 PM] 'xbdm'- stop ('192.168.128.53', 61123) Auth code - "33e95ab53d9f8fe7"
[2024-10-06 06:28:51 PM] 'xbdm'- TCP 35.213.166.82 80 500 25 0 ('192.168.128.53', 61123) Auth code - "1e189b65dfcc785e"
[2024-10-06 06:28:55 PM] 'xbdm'- stop ('192.168.128.53', 61123) Auth code - "1008cb75f14d7522"
[2024-10-06 06:28:59 PM] 'xbdm'- UDP 35.213.166.82 9339 65500 0 ('192.168.128.53', 61123) Auth code - "41b834295ad6e6d0"
[2024-10-06 06:29:13 PM] 'xbdm'- stop ('192.168.128.53', 61123) Auth code - "94f33e46534220e5"
[2024-10-06 06:32:49 PM] 'xbdm'- UDP 206.212.246.58 9339 65500 0 ('192.168.128.53', 61123) Auth code - "8068f7a99a26a995"
[2024-10-06 06:33:07 PM] 'xbdm'- stop ('192.168.128.53', 61123) Auth code - "81a209074eb3879d"
[2024-10-06 06:33:23 PM] 'xbdm'- UDP 208.99.62.84 65535 65500 0 ('192.168.128.53', 61123) Auth code - "61ed989ea3600019"
[2024-10-06 06:33:43 PM] 'xbdm'- stop ('192.168.128.53', 61123) Auth code - "beab78ca19d62c93"
[2024-10-06 06:33:44 PM] 'xbdm'- clear ('192.168.128.53', 61123)
[2024-10-06 06:35:00 PM] 'xbdm'- UDP 3.108.73.87 65535 65500 0 ('192.168.128.53', 61123) Auth code - "d4500e91c70232c3"
[2024-10-06 06:35:18 PM] 'xbdm'- stop ('192.168.128.53', 61123) Auth code - "5d70feeb282e12c9"
[2024-10-06 06:35:27 PM] 'xbdm'- TCP 3.108.73.87 80 500 25 0 ('192.168.128.53', 61123) Auth code - "d5e3fc8615e44d5d"
[2024-10-06 06:35:39 PM] 'xbdm'- stop ('192.168.128.53', 61123) Auth code - "d9dd86af94316fbd"
[2024-10-06 06:42:09 PM] 'xbdm'- HTTP https://nodec.mediathektv.com 500 50 0 POST ('192.168.128.53', 61123) Auth code - "3741b1b14de682b2"
[2024-10-06 06:42:42 PM] 'xbdm'- stop ('192.168.128.53', 61123) Auth code - "61ede43e7f4ae92c"
[2024-10-06 06:42:43 PM] 'xbdm'- clear ('192.168.128.53', 61123)
[2024-10-06 06:43:26 PM] 'xbdm'- TCP 38.51.157.254 80 500 25 0 ('192.168.128.53', 61123) Auth code - "e3867dec191b62ff"
[2024-10-06 06:43:43 PM] 'xbdm'- stop ('192.168.128.53', 61123) Auth code - "1a6e9a8ed66b2f7d"
[2024-10-06 06:44:22 PM] 'xbdm'- TCP 89.185.85.62 80 500 25 0 ('192.168.128.53', 61123) Auth code - "41b5020066bdc000"
[2024-10-06 06:44:37 PM] 'xbdm'- stop ('192.168.128.53', 61123) Auth code - "d2083a9403e9f171"
[2024-10-06 06:45:04 PM] 'xbdm'- TCP 54.67.13.50 80 500 25 0 ('192.168.128.53', 61123) Auth code - "d786f1d9b08d77ea"
[2024-10-06 06:45:38 PM] 'xbdm'- stop ('192.168.128.53', 61123) Auth code - "fd390c9ed00a7258"
[2024-10-06 06:46:19 PM] 'xbdm'- TCP 95.214.62.146 80 500 25 0 ('192.168.128.53', 61123) Auth code - "3fa7562f35b27875"
[2024-10-06 06:46:36 PM] 'xbdm'- stop ('192.168.128.53', 61123) Auth code - "36764be1cb3b01c0"
[2024-10-06 06:46:56 PM] 'xbdm'- TCP 23.29.132.94 80 500 25 0 ('192.168.128.53', 61123) Auth code - "6415017ea94b5dc4"
[2024-10-06 06:47:17 PM] 'xbdm'- stop ('192.168.128.53', 61123) Auth code - "2d2738dc3bef96bd"
[2024-10-06 06:48:05 PM] 'xbdm'- UDP 23.29.132.94 65535 65500 0 ('192.168.128.53', 61123) Auth code - "6636ca74d981015d"
[2024-10-06 06:48:18 PM] 'xbdm'- stop ('192.168.128.53', 61123) Auth code - "f843b0587eab4293"
[2024-10-06 06:51:57 PM] 'xbdm'- UDP 103.11.103.140 65535 65500 0 ('192.168.128.53', 61123) Auth code - "942266e762285231"
[2024-10-06 06:52:20 PM] 'xbdm'- stop ('192.168.128.53', 61123) Auth code - "1c7dd36eb0122edc"
[2024-10-06 06:53:15 PM] 'xbdm'- HTTP https://www.skhsms.edu.hk/ 500 50 0 POST ('192.168.128.53', 61123) Auth code - "0d57cc7212e9ef64"
[2024-10-06 06:53:42 PM] 'xbdm'- stop ('192.168.128.53', 61123) Auth code - "9612fbcbfdf1981f"
[2024-10-06 06:54:19 PM] 'xbdm'- HTTP https://scicube.com/ 500 50 0 POST ('192.168.128.53', 61123) Auth code - "bbd05118e6a1cfe3"
[2024-10-06 06:54:33 PM] 'xbdm'- stop ('192.168.128.53', 61123) Auth code - "2b644fefae9b0616"
[2024-10-06 06:55:08 PM] 'xbdm'- UDP 43.241.73.15 65535 65500 0 ('192.168.128.53', 61123) Auth code - "80ca8901ed26f4cd"
[2024-10-06 06:55:41 PM] 'xbdm'- stop ('192.168.128.53', 61123) Auth code - "737f184290133cb1"
[2024-10-06 06:58:48 PM] 'xbdm'- HTTP https://www.csdn.net/ 500 50 0 POST ('192.168.128.53', 61123) Auth code - "38285e6e6b2b763d"
[2024-10-06 06:59:00 PM] 'xbdm'- stop ('192.168.128.53', 61123) Auth code - "c686932b99ca9a98"
[2024-10-06 07:09:30 PM] 'xbdm'- UDP 34.102.231.126 65535 65500 0 ('192.168.128.53', 61123) Auth code - "9907fb9d73d34202"
[2024-10-06 07:09:35 PM] 'xbdm'- stop ('192.168.128.53', 61123) Auth code - "3f4e4aed92305a5e"
[2024-10-06 07:09:43 PM] 'xbdm'- TCP 34.102.231.126 80 500 25 0 ('192.168.128.53', 61123) Auth code - "13ea334f2ac45c25"
[2024-10-06 07:09:46 PM] 'xbdm'- stop ('192.168.128.53', 61123) Auth code - "5134001082c9f5b0"
[2024-10-06 07:11:03 PM] 'xbdm'- TCP 34.102.231.126 80 500 25 0 ('192.168.128.53', 61123) Auth code - "0db7ef666b44441a"
[2024-10-06 07:11:26 PM] 'xbdm'- stop ('192.168.128.53', 61123) Auth code - "6f858968597bf841"
[2024-10-06 07:11:38 PM] 'xbdm'- UDP 34.102.231.126 65535 65500 0 ('192.168.128.53', 61123) Auth code - "bc8e25626ec31706"
[2024-10-06 07:12:06 PM] 'xbdm'- stop ('192.168.128.53', 61123) Auth code - "43403e5c30b91d00"
[2024-10-06 07:12:15 PM] 'xbdm'- TCP 34.102.231.126 80 500 25 0 ('192.168.128.53', 61123) Auth code - "d05fba77ae8ef9c9"
[2024-10-06 07:12:28 PM] 'xbdm'- stop ('192.168.128.53', 61123) Auth code - "cb1030364449c4a8"
[2024-10-06 07:14:52 PM] 'xbdm'- TCP 34.102.231.126 80 500 25 0 ('192.168.128.53', 61123) Auth code - "e2f14e36be64404e"
[2024-10-06 07:15:08 PM] 'xbdm'- stop ('192.168.128.53', 61123) Auth code - "19d7ab032c343f33"
[2024-10-06 07:15:09 PM] 'xbdm'- TCP 34.102.231.126 80 500 25 0 ('192.168.128.53', 61123) Auth code - "1ef76da721431319"
[2024-10-06 07:15:11 PM] 'xbdm'- stop ('192.168.128.53', 61123) Auth code - "ce01f45d231f8a67"
[2024-10-06 07:15:37 PM] 'xbdm'- TCP 34.102.231.126 80 500 25 0 ('192.168.128.53', 61123) Auth code - "6a859bb72a400bdf"
[2024-10-06 07:15:39 PM] 'xbdm'- stop ('192.168.128.53', 61123) Auth code - "d4d8ee5cda3be643"
[2024-10-06 07:15:47 PM] 'xbdm'- TCP 34.102.231.126 80 500 25 0 ('192.168.128.53', 61123) Auth code - "553c00d25b69c046"
[2024-10-06 07:15:53 PM] 'xbdm'- stop ('192.168.128.53', 61123) Auth code - "befa9e3650015da3"
[2024-10-06 07:16:23 PM] 'xbdm'- TCP 34.102.231.126 80 500 25 0 ('192.168.128.53', 61123) Auth code - "b91f5e9670a63f6c"
[2024-10-06 07:16:33 PM] 'xbdm'- stop ('192.168.128.53', 61123) Auth code - "e8984a4cce7cfcbc"
[2024-10-06 07:18:34 PM] 'xbdm'- UDP 150.116.92.139 65535 65500 0 ('192.168.128.53', 61123) Auth code - "092ce92d96f192f7"
[2024-10-06 07:19:52 PM] 'xbdm'- stop ('192.168.128.53', 61123) Auth code - "630574c1f391db98"
[2024-10-06 07:19:53 PM] 'xbdm'- clear ('192.168.128.53', 61123)
[2024-10-06 07:23:07 PM] 'xbdm'- UDP 150.116.93.84 65535 65500 0 ('192.168.128.53', 61123) Auth code - "7f52e1ca21fc3779"
[2024-10-06 07:23:24 PM] 'xbdm'- stop ('192.168.128.53', 61123) Auth code - "c45ad7e9e383f68b"
[2024-10-06 08:54:31 PM] 'xbdm'- UDP 8.9.4.97 65535 65500 0 ('192.168.128.53', 61123) Auth code - "70e7fc2007a26eb4"
[2024-10-06 08:55:04 PM] 'xbdm'- stop ('192.168.128.53', 61123) Auth code - "72a7192d6f3365b3"
[2024-10-06 08:55:05 PM] 'xbdm'- clear ('192.168.128.53', 61123)
[2024-10-06 09:11:57 PM] 'xbdm'- HTTP https://cf.qq.com/ 500 50 0 POST ('192.168.128.53', 61123) Auth code - "0f7a7d1e3daf0811"
[2024-10-06 09:12:13 PM] 'xbdm'- stop ('192.168.128.53', 61123) Auth code - "20664d916149f2d6"
[2024-10-06 09:17:59 PM] 'xbdm'- stop ('192.168.128.53', 61123) Auth code - "07174fad4aed5ddf"
[2024-10-06 09:18:00 PM] 'xbdm'- clear ('192.168.128.53', 61123)
[2024-10-06 09:21:06 PM] 'xbdm'- stop ('192.168.128.53', 61123) Auth code - "5ba25d29d51d415c"
[2024-10-06 09:21:07 PM] 'xbdm'- clear ('192.168.128.53', 61123)
[2024-11-11 12:49:54 AM] 'xbdm'- help ('192.168.128.53', 49826)
[2024-11-11 12:49:56 AM] 'xbdm'- clear ('192.168.128.53', 49826)
[2024-11-11 12:52:00 AM] 'xbdm'- list ('192.168.128.53', 49826)
[2024-11-11 12:52:02 AM] 'xbdm'- stop ('192.168.128.53', 49826)
